HW/UART/DuplexTest.vcd
$date
	Tue Dec 24 22:01:13 2024
$end
$version
	ModelSim Version 2020.1
$end
$timescale
	1ns
$end

$scope module Full_tb $end
$var reg 1 ! reset_n_tb $end
$var reg 1 " send_tb $end
$var reg 1 # clock_tb $end
$var reg 2 $ parity_type_tb [1:0] $end
$var reg 2 % baud_rate_tb [1:0] $end
$var reg 8 & data_in_tb [7:0] $end
$var wire 1 ' tx_active_flag_tb $end
$var wire 1 ( tx_done_flag_tb $end
$var wire 1 ) rx_active_flag_tb $end
$var wire 1 * rx_done_flag_tb $end
$var wire 1 + error_flag_tb [2] $end
$var wire 1 , error_flag_tb [1] $end
$var wire 1 - error_flag_tb [0] $end
$var wire 1 . data_out_tb [7] $end
$var wire 1 / data_out_tb [6] $end
$var wire 1 0 data_out_tb [5] $end
$var wire 1 1 data_out_tb [4] $end
$var wire 1 2 data_out_tb [3] $end
$var wire 1 3 data_out_tb [2] $end
$var wire 1 4 data_out_tb [1] $end
$var wire 1 5 data_out_tb [0] $end

$scope module DUT $end
$var wire 1 6 reset_n $end
$var wire 1 7 send $end
$var wire 1 8 clock $end
$var wire 1 9 parity_type [1] $end
$var wire 1 : parity_type [0] $end
$var wire 1 ; baud_rate [1] $end
$var wire 1 < baud_rate [0] $end
$var wire 1 = data_in [7] $end
$var wire 1 > data_in [6] $end
$var wire 1 ? data_in [5] $end
$var wire 1 @ data_in [4] $end
$var wire 1 A data_in [3] $end
$var wire 1 B data_in [2] $end
$var wire 1 C data_in [1] $end
$var wire 1 D data_in [0] $end
$var wire 1 ' tx_active_flag $end
$var wire 1 ( tx_done_flag $end
$var wire 1 ) rx_active_flag $end
$var wire 1 * rx_done_flag $end
$var wire 1 . data_out [7] $end
$var wire 1 / data_out [6] $end
$var wire 1 0 data_out [5] $end
$var wire 1 1 data_out [4] $end
$var wire 1 2 data_out [3] $end
$var wire 1 3 data_out [2] $end
$var wire 1 4 data_out [1] $end
$var wire 1 5 data_out [0] $end
$var wire 1 + error_flag [2] $end
$var wire 1 , error_flag [1] $end
$var wire 1 - error_flag [0] $end
$var wire 1 E data_tx_w $end

$scope module Transmitter $end
$var wire 1 6 reset_n $end
$var wire 1 7 send $end
$var wire 1 8 clock $end
$var wire 1 9 parity_type [1] $end
$var wire 1 : parity_type [0] $end
$var wire 1 ; baud_rate [1] $end
$var wire 1 < baud_rate [0] $end
$var wire 1 = data_in [7] $end
$var wire 1 > data_in [6] $end
$var wire 1 ? data_in [5] $end
$var wire 1 @ data_in [4] $end
$var wire 1 A data_in [3] $end
$var wire 1 B data_in [2] $end
$var wire 1 C data_in [1] $end
$var wire 1 D data_in [0] $end
$var wire 1 E data_tx $end
$var wire 1 ' active_flag $end
$var wire 1 ( done_flag $end
$var wire 1 F parity_bit_w $end
$var wire 1 G baud_clk_w $end

$scope module Unit1 $end
$var parameter 2 H BAUD24 $end
$var parameter 2 I BAUD48 $end
$var parameter 2 J BAUD96 $end
$var parameter 2 K BAUD192 $end
$var wire 1 6 reset_n $end
$var wire 1 8 clock $end
$var wire 1 ; baud_rate [1] $end
$var wire 1 < baud_rate [0] $end
$var reg 1 L baud_clk $end
$var reg 14 M clock_ticks [13:0] $end
$var reg 14 N final_value [13:0] $end
$upscope $end

$scope module Unit2 $end
$var parameter 2 O NOPARITY00 $end
$var parameter 2 P ODD $end
$var parameter 2 Q Even $end
$var parameter 2 R NOPARITY11 $end
$var wire 1 6 reset_n $end
$var wire 1 = data_in [7] $end
$var wire 1 > data_in [6] $end
$var wire 1 ? data_in [5] $end
$var wire 1 @ data_in [4] $end
$var wire 1 A data_in [3] $end
$var wire 1 B data_in [2] $end
$var wire 1 C data_in [1] $end
$var wire 1 D data_in [0] $end
$var wire 1 9 parity_type [1] $end
$var wire 1 : parity_type [0] $end
$var reg 1 S parity_bit $end
$upscope $end

$scope module Unit3 $end
$var parameter 1 T IDLE $end
$var parameter 1 U ACTIVE $end
$var wire 1 6 reset_n $end
$var wire 1 7 send $end
$var wire 1 G baud_clk $end
$var wire 1 F parity_bit $end
$var wire 1 9 parity_type [1] $end
$var wire 1 : parity_type [0] $end
$var wire 1 = data_in [7] $end
$var wire 1 > data_in [6] $end
$var wire 1 ? data_in [5] $end
$var wire 1 @ data_in [4] $end
$var wire 1 A data_in [3] $end
$var wire 1 B data_in [2] $end
$var wire 1 C data_in [1] $end
$var wire 1 D data_in [0] $end
$var reg 1 V data_tx $end
$var reg 1 W active_flag $end
$var reg 1 X done_flag $end
$var reg 4 Y stop_count [3:0] $end
$var reg 11 Z frame [10:0] $end
$var reg 11 [ frame_r [10:0] $end
$var reg 8 \ reg_data [7:0] $end
$var reg 1 ] next_state $end
$upscope $end
$upscope $end

$scope module Reciever $end
$var wire 1 6 reset_n $end
$var wire 1 E data_tx $end
$var wire 1 8 clock $end
$var wire 1 9 parity_type [1] $end
$var wire 1 : parity_type [0] $end
$var wire 1 ; baud_rate [1] $end
$var wire 1 < baud_rate [0] $end
$var wire 1 ) active_flag $end
$var wire 1 * done_flag $end
$var wire 1 + error_flag [2] $end
$var wire 1 , error_flag [1] $end
$var wire 1 - error_flag [0] $end
$var wire 1 . data_out [7] $end
$var wire 1 / data_out [6] $end
$var wire 1 0 data_out [5] $end
$var wire 1 1 data_out [4] $end
$var wire 1 2 data_out [3] $end
$var wire 1 3 data_out [2] $end
$var wire 1 4 data_out [1] $end
$var wire 1 5 data_out [0] $end
$var wire 1 ^ baud_clk_w $end
$var wire 1 _ data_parll_w [10] $end
$var wire 1 ` data_parll_w [9] $end
$var wire 1 a data_parll_w [8] $end
$var wire 1 b data_parll_w [7] $end
$var wire 1 c data_parll_w [6] $end
$var wire 1 d data_parll_w [5] $end
$var wire 1 e data_parll_w [4] $end
$var wire 1 f data_parll_w [3] $end
$var wire 1 g data_parll_w [2] $end
$var wire 1 h data_parll_w [1] $end
$var wire 1 i data_parll_w [0] $end
$var wire 1 j recieved_flag_w $end
$var wire 1 k def_par_bit_w $end
$var wire 1 l def_strt_bit_w $end
$var wire 1 m def_stp_bit_w $end

$scope module Unit1 $end
$var parameter 2 n BAUD24 $end
$var parameter 2 o BAUD48 $end
$var parameter 2 p BAUD96 $end
$var parameter 2 q BAUD192 $end
$var wire 1 6 reset_n $end
$var wire 1 8 clock $end
$var wire 1 ; baud_rate [1] $end
$var wire 1 < baud_rate [0] $end
$var reg 1 r baud_clk $end
$var reg 10 s final_value [9:0] $end
$var reg 10 t clock_ticks [9:0] $end
$upscope $end

$scope module Unit2 $end
$var parameter 2 u IDLE $end
$var parameter 2 v CENTER $end
$var parameter 2 w FRAME $end
$var parameter 2 x HOLD $end
$var wire 1 6 reset_n $end
$var wire 1 E data_tx $end
$var wire 1 ^ baud_clk $end
$var reg 1 y active_flag $end
$var reg 1 z recieved_flag $end
$var reg 11 { data_parll [10:0] $end
$var reg 4 | frame_counter [3:0] $end
$var reg 4 } stop_count [3:0] $end
$var reg 2 ~ next_state [1:0] $end
$upscope $end

$scope module Unit3 $end
$var wire 1 6 reset_n $end
$var wire 1 j recieved_flag $end
$var wire 1 _ data_parll [10] $end
$var wire 1 ` data_parll [9] $end
$var wire 1 a data_parll [8] $end
$var wire 1 b data_parll [7] $end
$var wire 1 c data_parll [6] $end
$var wire 1 d data_parll [5] $end
$var wire 1 e data_parll [4] $end
$var wire 1 f data_parll [3] $end
$var wire 1 g data_parll [2] $end
$var wire 1 h data_parll [1] $end
$var wire 1 i data_parll [0] $end
$var reg 1 !! parity_bit $end
$var reg 1 "! start_bit $end
$var reg 1 #! stop_bit $end
$var reg 1 $! done_flag $end
$var reg 8 %! raw_data [7:0] $end
$upscope $end

$scope module Unit4 $end
$var parameter 2 &! ODD $end
$var parameter 2 '! EVEN $end
$var parameter 2 (! NOPARITY00 $end
$var parameter 2 )! NOPARITY11 $end
$var wire 1 6 reset_n $end
$var wire 1 * recieved_flag $end
$var wire 1 k parity_bit $end
$var wire 1 l start_bit $end
$var wire 1 m stop_bit $end
$var wire 1 9 parity_type [1] $end
$var wire 1 : parity_type [0] $end
$var wire 1 . raw_data [7] $end
$var wire 1 / raw_data [6] $end
$var wire 1 0 raw_data [5] $end
$var wire 1 1 raw_data [4] $end
$var wire 1 2 raw_data [3] $end
$var wire 1 3 raw_data [2] $end
$var wire 1 4 raw_data [1] $end
$var wire 1 5 raw_data [0] $end
$var reg 3 *! error_flag [2:0] $end
$var reg 1 +! error_parity $end
$var reg 1 ,! parity_flag $end
$var reg 1 -! start_flag $end
$var reg 1 .! stop_flag $end
$upscope $end
$upscope $end
$upscope $end
$upscope $end
$enddefinitions $end
#0
$dumpvars
0!
1"
0#
b1 $
b11 %
b10101010 &
0L
b0 M
b10100010110 N
1S
xV
xW
xX
bx Y
b11101010100 Z
bx [
b10101010 \
0]
0r
b1010001 s
b0 t
xy
xz
bx {
bx |
bx }
b0 ~
1!!
0"!
1#!
1$!
b11111111 %!
b0 *!
1+!
0,!
0-!
0.!
b0 H
b1 I
b10 J
b11 K
b0 O
b1 P
b10 Q
b11 R
b0 T
b1 U
b0 n
b1 o
b10 p
b11 q
b0 u
b1 v
b10 w
b11 x
b1 &!
b10 '!
b0 (!
b11 )!
x'
x(
x)
1*
0-
0,
0+
15
14
13
12
11
10
1/
1.
xE
1F
0G
0^
xi
xh
xg
xf
xe
xd
xc
xb
xa
x`
x_
xj
1k
0l
1m
0D
1C
0B
1A
0@
1?
0>
1=
1<
1;
1:
09
08
17
06
$end
#10
1#
1!
18
16
0$!
b1 M
b1 t
0*
#20
0#
08
#30
1#
18
b10 M
b10 t
#40
0#
08
#50
1#
18
b11 M
b11 t
#60
0#
08
#70
1#
18
b100 M
b100 t
#80
0#
08
#90
1#
18
b101 M
b101 t
#100
0#
08
#110
1#
18
b110 M
b110 t
#120
0#
08
#130
1#
18
b111 M
b111 t
#140
0#
08
#150
1#
18
b1000 M
b1000 t
#160
0#
08
#170
1#
18
b1001 M
b1001 t
#180
0#
08
#190
1#
18
b1010 M
b1010 t
#200
0#
08
#210
1#
18
b1011 M
b1011 t
#220
0#
08
#230
1#
18
b1100 M
b1100 t
#240
0#
08
#250
1#
18
b1101 M
b1101 t
#260
0#
08
#270
1#
18
b1110 M
b1110 t
#280
0#
08
#290
1#
18
b1111 M
b1111 t
#300
0#
08
#310
1#
18
b10000 M
b10000 t
#320
0#
08
#330
1#
18
b10001 M
b10001 t
#340
0#
08
#350
1#
18
b10010 M
b10010 t
#360
0#
08
#370
1#
18
b10011 M
b10011 t
#380
0#
08
#390
1#
18
b10100 M
b10100 t
#400
0#
08
#410
1#
18
b10101 M
b10101 t
#420
0#
08
#430
1#
18
b10110 M
b10110 t
#440
0#
08
#450
1#
18
b10111 M
b10111 t
#460
0#
08
#470
1#
18
b11000 M
b11000 t
#480
0#
08
#490
1#
18
b11001 M
b11001 t
#500
0#
08
#510
1#
18
b11010 M
b11010 t
#520
0#
08
#530
1#
18
b11011 M
b11011 t
#540
0#
08
#550
1#
18
b11100 M
b11100 t
#560
0#
08
#570
1#
18
b11101 M
b11101 t
#580
0#
08
#590
1#
18
b11110 M
b11110 t
#600
0#
08
#610
1#
18
b11111 M
b11111 t
#620
0#
08
#630
1#
18
b100000 M
b100000 t
#640
0#
08
#650
1#
18
b100001 M
b100001 t
#660
0#
08
#670
1#
18
b100010 M
b100010 t
#680
0#
08
#690
1#
18
b100011 M
b100011 t
#700
0#
08
#710
1#
18
b100100 M
b100100 t
#720
0#
08
#730
1#
18
b100101 M
b100101 t
#740
0#
08
#750
1#
18
b100110 M
b100110 t
#760
0#
08
#770
1#
18
b100111 M
b100111 t
#780
0#
08
#790
1#
18
b101000 M
b101000 t
#800
0#
08
#810
1#
18
b101001 M
b101001 t
#820
0#
08
#830
1#
18
b101010 M
b101010 t
#840
0#
08
#850
1#
18
b101011 M
b101011 t
#860
0#
08
#870
1#
18
b101100 M
b101100 t
#880
0#
08
#890
1#
18
b101101 M
b101101 t
#900
0#
08
#910
1#
18
b101110 M
b101110 t
#920
0#
08
#930
1#
18
b101111 M
b101111 t
#940
0#
08
#950
1#
18
b110000 M
b110000 t
#960
0#
08
#970
1#
18
b110001 M
b110001 t
#980
0#
08
#990
1#
18
b110010 M
b110010 t
#1000
0#
08
#1010
1#
18
b110011 M
b110011 t
#1020
0#
08
#1030
1#
18
b110100 M
b110100 t
#1040
0#
08
#1050
1#
18
b110101 M
b110101 t
#1060
0#
08
#1070
1#
18
b110110 M
b110110 t
#1080
0#
08
#1090
1#
18
b110111 M
b110111 t
#1100
0#
08
#1110
1#
18
b111000 M
b111000 t
#1120
0#
08
#1130
1#
18
b111001 M
b111001 t
#1140
0#
08
#1150
1#
18
b111010 M
b111010 t
#1160
0#
08
#1170
1#
18
b111011 M
b111011 t
#1180
0#
08
#1190
1#
18
b111100 M
b111100 t
#1200
0#
08
#1210
1#
18
b111101 M
b111101 t
#1220
0#
08
#1230
1#
18
b111110 M
b111110 t
#1240
0#
08
#1250
1#
18
b111111 M
b111111 t
#1260
0#
08
#1270
1#
18
b1000000 M
b1000000 t
#1280
0#
08
#1290
1#
18
b1000001 M
b1000001 t
#1300
0#
08
#1310
1#
18
b1000010 M
b1000010 t
#1320
0#
08
#1330
1#
18
b1000011 M
b1000011 t
#1340
0#
08
#1350
1#
18
b1000100 M
b1000100 t
#1360
0#
08
#1370
1#
18
b1000101 M
b1000101 t
#1380
0#
08
#1390
1#
18
b1000110 M
b1000110 t
#1400
0#
08
#1410
1#
18
b1000111 M
b1000111 t
#1420
0#
08
#1430
1#
18
b1001000 M
b1001000 t
#1440
0#
08
#1450
1#
18
b1001001 M
b1001001 t
#1460
0#
08
#1470
1#
18
b1001010 M
b1001010 t
#1480
0#
08
#1490
1#
18
b1001011 M
b1001011 t
#1500
0#
08
#1510
1#
18
b1001100 M
b1001100 t
#1520
0#
08
#1530
1#
18
b1001101 M
b1001101 t
#1540
0#
08
#1550
1#
18
b1001110 M
b1001110 t
#1560
0#
08
#1570
1#
18
b1001111 M
b1001111 t
#1580
0#
08
#1590
1#
18
b1010000 M
b1010000 t
#1600
0#
08
#1610
1#
18
b1010001 M
b1010001 t
#1620
0#
08
#1630
1#
18
b1010010 M
1r
b0 t
1^
b11111111111 {
b0 }
b0 |
0z
0y
0)
1i
1h
1g
1f
1e
1d
1c
1b
1a
1`
1_
0j
#1640
0#
08
#1650
1#
18
b1010011 M
b1 t
#1660
0#
08
#1670
1#
18
b1010100 M
b10 t
#1680
0#
08
#1690
1#
18
b1010101 M
b11 t
#1700
0#
08
#1710
1#
18
b1010110 M
b100 t
#1720
0#
08
#1730
1#
18
b1010111 M
b101 t
#1740
0#
08
#1750
1#
18
b1011000 M
b110 t
#1760
0#
08
#1770
1#
18
b1011001 M
b111 t
#1780
0#
08
#1790
1#
18
b1011010 M
b1000 t
#1800
0#
08
#1810
1#
18
b1011011 M
b1001 t
#1820
0#
08
#1830
1#
18
b1011100 M
b1010 t
#1840
0#
08
#1850
1#
18
b1011101 M
b1011 t
#1860
0#
08
#1870
1#
18
b1011110 M
b1100 t
#1880
0#
08
#1890
1#
18
b1011111 M
b1101 t
#1900
0#
08
#1910
1#
18
b1100000 M
b1110 t
#1920
0#
08
#1930
1#
18
b1100001 M
b1111 t
#1940
0#
08
#1950
1#
18
b1100010 M
b10000 t
#1960
0#
08
#1970
1#
18
b1100011 M
b10001 t
#1980
0#
08
#1990
1#
18
b1100100 M
b10010 t
#2000
0#
08
#2010
1#
18
b1100101 M
b10011 t
#2020
0#
08
#2030
1#
18
b1100110 M
b10100 t
#2040
0#
08
#2050
1#
18
b1100111 M
b10101 t
#2060
0#
08
#2070
1#
18
b1101000 M
b10110 t
#2080
0#
08
#2090
1#
18
b1101001 M
b10111 t
#2100
0#
08
#2110
1#
18
b1101010 M
b11000 t
#2120
0#
08
#2130
1#
18
b1101011 M
b11001 t
#2140
0#
08
#2150
1#
18
b1101100 M
b11010 t
#2160
0#
08
#2170
1#
18
b1101101 M
b11011 t
#2180
0#
08
#2190
1#
18
b1101110 M
b11100 t
#2200
0#
08
#2210
1#
18
b1101111 M
b11101 t
#2220
0#
08
#2230
1#
18
b1110000 M
b11110 t
#2240
0#
08
#2250
1#
18
b1110001 M
b11111 t
#2260
0#
08
#2270
1#
18
b1110010 M
b100000 t
#2280
0#
08
#2290
1#
18
b1110011 M
b100001 t
#2300
0#
08
#2310
1#
18
b1110100 M
b100010 t
#2320
0#
08
#2330
1#
18
b1110101 M
b100011 t
#2340
0#
08
#2350
1#
18
b1110110 M
b100100 t
#2360
0#
08
#2370
1#
18
b1110111 M
b100101 t
#2380
0#
08
#2390
1#
18
b1111000 M
b100110 t
#2400
0#
08
#2410
1#
18
b1111001 M
b100111 t
#2420
0#
08
#2430
1#
18
b1111010 M
b101000 t
#2440
0#
08
#2450
1#
18
b1111011 M
b101001 t
#2460
0#
08
#2470
1#
18
b1111100 M
b101010 t
#2480
0#
08
#2490
1#
18
b1111101 M
b101011 t
#2500
0#
08
#2510
1#
18
b1111110 M
b101100 t
#2520
0#
08
#2530
1#
18
b1111111 M
b101101 t
#2540
0#
08
#2550
1#
18
b10000000 M
b101110 t
#2560
0#
08
#2570
1#
18
b10000001 M
b101111 t
#2580
0#
08
#2590
1#
18
b10000010 M
b110000 t
#2600
0#
08
#2610
1#
18
b10000011 M
b110001 t
#2620
0#
08
#2630
1#
18
b10000100 M
b110010 t
#2640
0#
08
#2650
1#
18
b10000101 M
b110011 t
#2660
0#
08
#2670
1#
18
b10000110 M
b110100 t
#2680
0#
08
#2690
1#
18
b10000111 M
b110101 t
#2700
0#
08
#2710
1#
18
b10001000 M
b110110 t
#2720
0#
08
#2730
1#
18
b10001001 M
b110111 t
#2740
0#
08
#2750
1#
18
b10001010 M
b111000 t
#2760
0#
08
#2770
1#
18
b10001011 M
b111001 t
#2780
0#
08
#2790
1#
18
b10001100 M
b111010 t
#2800
0#
08
#2810
1#
18
b10001101 M
b111011 t
#2820
0#
08
#2830
1#
18
b10001110 M
b111100 t
#2840
0#
08
#2850
1#
18
b10001111 M
b111101 t
#2860
0#
08
#2870
1#
18
b10010000 M
b111110 t
#2880
0#
08
#2890
1#
18
b10010001 M
b111111 t
#2900
0#
08
#2910
1#
18
b10010010 M
b1000000 t
#2920
0#
08
#2930
1#
18
b10010011 M
b1000001 t
#2940
0#
08
#2950
1#
18
b10010100 M
b1000010 t
#2960
0#
08
#2970
1#
18
b10010101 M
b1000011 t
#2980
0#
08
#2990
1#
18
b10010110 M
b1000100 t
#3000
0#
08
#3010
1#
18
b10010111 M
b1000101 t
#3020
0#
08
#3030
1#
18
b10011000 M
b1000110 t
#3040
0#
08
#3050
1#
18
b10011001 M
b1000111 t
#3060
0#
08
#3070
1#
18
b10011010 M
b1001000 t
#3080
0#
08
#3090
1#
18
b10011011 M
b1001001 t
#3100
0#
08
#3110
1#
18
b10011100 M
b1001010 t
#3120
0#
08
#3130
1#
18
b10011101 M
b1001011 t
#3140
0#
08
#3150
1#
18
b10011110 M
b1001100 t
#3160
0#
08
#3170
1#
18
b10011111 M
b1001101 t
#3180
0#
08
#3190
1#
18
b10100000 M
b1001110 t
#3200
0#
08
#3210
1#
18
b10100001 M
b1001111 t
#3220
0#
08
#3230
1#
18
b10100010 M
b1010000 t
#3240
0#
08
#3250
1#
18
b10100011 M
b1010001 t
#3260
0#
08
#3270
1#
18
b10100100 M
0r
b0 t
0^
#3280
0#
08
#3290
1#
18
b10100101 M
b1 t
#3300
0#
08
#3310
1#
18
b10100110 M
b10 t
#3320
0#
08
#3330
1#
18
b10100111 M
b11 t
#3340
0#
08
#3350
1#
18
b10101000 M
b100 t
#3360
0#
08
#3370
1#
18
b10101001 M
b101 t
#3380
0#
08
#3390
1#
18
b10101010 M
b110 t
#3400
0#
08
#3410
1#
18
b10101011 M
b111 t
#3420
0#
08
#3430
1#
18
b10101100 M
b1000 t
#3440
0#
08
#3450
1#
18
b10101101 M
b1001 t
#3460
0#
08
#3470
1#
18
b10101110 M
b1010 t
#3480
0#
08
#3490
1#
18
b10101111 M
b1011 t
#3500
0#
08
#3510
1#
18
b10110000 M
b1100 t
#3520
0#
08
#3530
1#
18
b10110001 M
b1101 t
#3540
0#
08
#3550
1#
18
b10110010 M
b1110 t
#3560
0#
08
#3570
1#
18
b10110011 M
b1111 t
#3580
0#
08
#3590
1#
18
b10110100 M
b10000 t
#3600
0#
08
#3610
1#
18
b10110101 M
b10001 t
#3620
0#
08
#3630
1#
18
b10110110 M
b10010 t
#3640
0#
08
#3650
1#
18
b10110111 M
b10011 t
#3660
0#
08
#3670
1#
18
b10111000 M
b10100 t
#3680
0#
08
#3690
1#
18
b10111001 M
b10101 t
#3700
0#
08
#3710
1#
18
b10111010 M
b10110 t
#3720
0#
08
#3730
1#
18
b10111011 M
b10111 t
#3740
0#
08
#3750
1#
18
b10111100 M
b11000 t
#3760
0#
08
#3770
1#
18
b10111101 M
b11001 t
#3780
0#
08
#3790
1#
18
b10111110 M
b11010 t
#3800
0#
08
#3810
1#
18
b10111111 M
b11011 t
#3820
0#
08
#3830
1#
18
b11000000 M
b11100 t
#3840
0#
08
#3850
1#
18
b11000001 M
b11101 t
#3860
0#
08
#3870
1#
18
b11000010 M
b11110 t
#3880
0#
08
#3890
1#
18
b11000011 M
b11111 t
#3900
0#
08
#3910
1#
18
b11000100 M
b100000 t
#3920
0#
08
#3930
1#
18
b11000101 M
b100001 t
#3940
0#
08
#3950
1#
18
b11000110 M
b100010 t
#3960
0#
08
#3970
1#
18
b11000111 M
b100011 t
#3980
0#
08
#3990
1#
18
b11001000 M
b100100 t
#4000
0#
08
#4010
1#
18
b11001001 M
b100101 t
#4020
0#
08
#4030
1#
18
b11001010 M
b100110 t
#4040
0#
08
#4050
1#
18
b11001011 M
b100111 t
#4060
0#
08
#4070
1#
18
b11001100 M
b101000 t
#4080
0#
08
#4090
1#
18
b11001101 M
b101001 t
#4100
0#
08
#4110
1#
18
b11001110 M
b101010 t
#4120
0#
08
#4130
1#
18
b11001111 M
b101011 t
#4140
0#
08
#4150
1#
18
b11010000 M
b101100 t
#4160
0#
08
#4170
1#
18
b11010001 M
b101101 t
#4180
0#
08
#4190
1#
18
b11010010 M
b101110 t
#4200
0#
08
#4210
1#
18
b11010011 M
b101111 t
#4220
0#
08
#4230
1#
18
b11010100 M
b110000 t
#4240
0#
08
#4250
1#
18
b11010101 M
b110001 t
#4260
0#
08
#4270
1#
18
b11010110 M
b110010 t
#4280
0#
08
#4290
1#
18
b11010111 M
b110011 t
#4300
0#
08
#4310
1#
18
b11011000 M
b110100 t
#4320
0#
08
#4330
1#
18
b11011001 M
b110101 t
#4340
0#
08
#4350
1#
18
b11011010 M
b110110 t
#4360
0#
08
#4370
1#
18
b11011011 M
b110111 t
#4380
0#
08
#4390
1#
18
b11011100 M
b111000 t
#4400
0#
08
#4410
1#
18
b11011101 M
b111001 t
#4420
0#
08
#4430
1#
18
b11011110 M
b111010 t
#4440
0#
08
#4450
1#
18
b11011111 M
b111011 t
#4460
0#
08
#4470
1#
18
b11100000 M
b111100 t
#4480
0#
08
#4490
1#
18
b11100001 M
b111101 t
#4500
0#
08
#4510
1#
18
b11100010 M
b111110 t
#4520
0#
08
#4530
1#
18
b11100011 M
b111111 t
#4540
0#
08
#4550
1#
18
b11100100 M
b1000000 t
#4560
0#
08
#4570
1#
18
b11100101 M
b1000001 t
#4580
0#
08
#4590
1#
18
b11100110 M
b1000010 t
#4600
0#
08
#4610
1#
18
b11100111 M
b1000011 t
#4620
0#
08
#4630
1#
18
b11101000 M
b1000100 t
#4640
0#
08
#4650
1#
18
b11101001 M
b1000101 t
#4660
0#
08
#4670
1#
18
b11101010 M
b1000110 t
#4680
0#
08
#4690
1#
18
b11101011 M
b1000111 t
#4700
0#
08
#4710
1#
18
b11101100 M
b1001000 t
#4720
0#
08
#4730
1#
18
b11101101 M
b1001001 t
#4740
0#
08
#4750
1#
18
b11101110 M
b1001010 t
#4760
0#
08
#4770
1#
18
b11101111 M
b1001011 t
#4780
0#
08
#4790
1#
18
b11110000 M
b1001100 t
#4800
0#
08
#4810
1#
18
b11110001 M
b1001101 t
#4820
0#
08
#4830
1#
18
b11110010 M
b1001110 t
#4840
0#
08
#4850
1#
18
b11110011 M
b1001111 t
#4860
0#
08
#4870
1#
18
b11110100 M
b1010000 t
#4880
0#
08
#4890
1#
18
b11110101 M
b1010001 t
#4900
0#
08
#4910
1#
18
b11110110 M
1r
b0 t
1^
#4920
0#
08
#4930
1#
18
b11110111 M
b1 t
#4940
0#
08
#4950
1#
18
b11111000 M
b10 t
#4960
0#
08
#4970
1#
18
b11111001 M
b11 t
#4980
0#
08
#4990
1#
18
b11111010 M
b100 t
#5000
0#
08
#5010
1#
18
b11111011 M
b101 t
#5020
0#
08
#5030
1#
18
b11111100 M
b110 t
#5040
0#
08
#5050
1#
18
b11111101 M
b111 t
#5060
0#
08
#5070
1#
18
b11111110 M
b1000 t
#5080
0#
08
#5090
1#
18
b11111111 M
b1001 t
#5100
0#
08
#5110
1#
18
b100000000 M
b1010 t
#5120
0#
08
#5130
1#
18
b100000001 M
b1011 t
#5140
0#
08
#5150
1#
18
b100000010 M
b1100 t
#5160
0#
08
#5170
1#
18
b100000011 M
b1101 t
#5180
0#
08
#5190
1#
18
b100000100 M
b1110 t
#5200
0#
08
#5210
1#
18
b100000101 M
b1111 t
#5220
0#
08
#5230
1#
18
b100000110 M
b10000 t
#5240
0#
08
#5250
1#
18
b100000111 M
b10001 t
#5260
0#
08
#5270
1#
18
b100001000 M
b10010 t
#5280
0#
08
#5290
1#
18
b100001001 M
b10011 t
#5300
0#
08
#5310
1#
18
b100001010 M
b10100 t
#5320
0#
08
#5330
1#
18
b100001011 M
b10101 t
#5340
0#
08
#5350
1#
18
b100001100 M
b10110 t
#5360
0#
08
#5370
1#
18
b100001101 M
b10111 t
#5380
0#
08
#5390
1#
18
b100001110 M
b11000 t
#5400
0#
08
#5410
1#
18
b100001111 M
b11001 t
#5420
0#
08
#5430
1#
18
b100010000 M
b11010 t
#5440
0#
08
#5450
1#
18
b100010001 M
b11011 t
#5460
0#
08
#5470
1#
18
b100010010 M
b11100 t
#5480
0#
08
#5490
1#
18
b100010011 M
b11101 t
#5500
0#
08
#5510
1#
18
b100010100 M
b11110 t
#5520
0#
08
#5530
1#
18
b100010101 M
b11111 t
#5540
0#
08
#5550
1#
18
b100010110 M
b100000 t
#5560
0#
08
#5570
1#
18
b100010111 M
b100001 t
#5580
0#
08
#5590
1#
18
b100011000 M
b100010 t
#5600
0#
08
#5610
1#
18
b100011001 M
b100011 t
#5620
0#
08
#5630
1#
18
b100011010 M
b100100 t
#5640
0#
08
#5650
1#
18
b100011011 M
b100101 t
#5660
0#
08
#5670
1#
18
b100011100 M
b100110 t
#5680
0#
08
#5690
1#
18
b100011101 M
b100111 t
#5700
0#
08
#5710
1#
18
b100011110 M
b101000 t
#5720
0#
08
#5730
1#
18
b100011111 M
b101001 t
#5740
0#
08
#5750
1#
18
b100100000 M
b101010 t
#5760
0#
08
#5770
1#
18
b100100001 M
b101011 t
#5780
0#
08
#5790
1#
18
b100100010 M
b101100 t
#5800
0#
08
#5810
1#
18
b100100011 M
b101101 t
#5820
0#
08
#5830
1#
18
b100100100 M
b101110 t
#5840
0#
08
#5850
1#
18
b100100101 M
b101111 t
#5860
0#
08
#5870
1#
18
b100100110 M
b110000 t
#5880
0#
08
#5890
1#
18
b100100111 M
b110001 t
#5900
0#
08
#5910
1#
18
b100101000 M
b110010 t
#5920
0#
08
#5930
1#
18
b100101001 M
b110011 t
#5940
0#
08
#5950
1#
18
b100101010 M
b110100 t
#5960
0#
08
#5970
1#
18
b100101011 M
b110101 t
#5980
0#
08
#5990
1#
18
b100101100 M
b110110 t
#6000
0#
08
#6010
1#
18
b100101101 M
b110111 t
#6020
0#
08
#6030
1#
18
b100101110 M
b111000 t
#6040
0#
08
#6050
1#
18
b100101111 M
b111001 t
#6060
0#
08
#6070
1#
18
b100110000 M
b111010 t
#6080
0#
08
#6090
1#
18
b100110001 M
b111011 t
#6100
0#
08
#6110
1#
18
b100110010 M
b111100 t
#6120
0#
08
#6130
1#
18
b100110011 M
b111101 t
#6140
0#
08
#6150
1#
18
b100110100 M
b111110 t
#6160
0#
08
#6170
1#
18
b100110101 M
b111111 t
#6180
0#
08
#6190
1#
18
b100110110 M
b1000000 t
#6200
0#
08
#6210
1#
18
b100110111 M
b1000001 t
#6220
0#
08
#6230
1#
18
b100111000 M
b1000010 t
#6240
0#
08
#6250
1#
18
b100111001 M
b1000011 t
#6260
0#
08
#6270
1#
18
b100111010 M
b1000100 t
#6280
0#
08
#6290
1#
18
b100111011 M
b1000101 t
#6300
0#
08
#6310
1#
18
b100111100 M
b1000110 t
#6320
0#
08
#6330
1#
18
b100111101 M
b1000111 t
#6340
0#
08
#6350
1#
18
b100111110 M
b1001000 t
#6360
0#
08
#6370
1#
18
b100111111 M
b1001001 t
#6380
0#
08
#6390
1#
18
b101000000 M
b1001010 t
#6400
0#
08
#6410
1#
18
b101000001 M
b1001011 t
#6420
0#
08
#6430
1#
18
b101000010 M
b1001100 t
#6440
0#
08
#6450
1#
18
b101000011 M
b1001101 t
#6460
0#
08
#6470
1#
18
b101000100 M
b1001110 t
#6480
0#
08
#6490
1#
18
b101000101 M
b1001111 t
#6500
0#
08
#6510
1#
18
b101000110 M
b1010000 t
#6520
0#
08
#6530
1#
18
b101000111 M
b1010001 t
#6540
0#
08
#6550
1#
18
b101001000 M
0r
b0 t
0^
#6560
0#
08
#6570
1#
18
b101001001 M
b1 t
#6580
0#
08
#6590
1#
18
b101001010 M
b10 t
#6600
0#
08
#6610
1#
18
b101001011 M
b11 t
