HW/UART/PISO_Test.vcd
$date
	Tue Dec 24 11:08:45 2024
$end
$version
	ModelSim Version 2020.1
$end
$timescale
	1ns
$end

$scope module PISO_tb $end
$var reg 1 ! reset_n $end
$var reg 1 " send $end
$var reg 1 # baud_clk $end
$var reg 1 $ parity_bit $end
$var reg 2 % parity_type [1:0] $end
$var reg 8 & data_in [7:0] $end
$var wire 1 ' data_tx $end
$var wire 1 ( active_flag $end
$var wire 1 ) done_flag $end

$scope module dut $end
$var parameter 1 * IDLE $end
$var parameter 1 + ACTIVE $end
$var wire 1 , reset_n $end
$var wire 1 - send $end
$var wire 1 . baud_clk $end
$var wire 1 / parity_bit $end
$var wire 1 0 parity_type [1] $end
$var wire 1 1 parity_type [0] $end
$var wire 1 2 data_in [7] $end
$var wire 1 3 data_in [6] $end
$var wire 1 4 data_in [5] $end
$var wire 1 5 data_in [4] $end
$var wire 1 6 data_in [3] $end
$var wire 1 7 data_in [2] $end
$var wire 1 8 data_in [1] $end
$var wire 1 9 data_in [0] $end
$var reg 1 : data_tx $end
$var reg 1 ; active_flag $end
$var reg 1 < done_flag $end
$var reg 4 = stop_count [3:0] $end
$var reg 11 > frame [10:0] $end
$var reg 11 ? frame_r [10:0] $end
$var reg 8 @ reg_data [7:0] $end
$var reg 1 A next_state $end
$upscope $end
$upscope $end
$enddefinitions $end
#0
$dumpvars
0!
0"
0#
1$
b0 %
b1001010 &
x:
x;
x<
bx =
b11010010100 >
bx ?
b1001010 @
0A
b0 *
b1 +
x'
x(
x)
09
18
07
16
05
04
13
02
01
00
1/
0.
0-
0,
$end
#100
1!
1,
#1000
1"
1-
#104167
1#
1.
b11010010100 ?
1:
0;
1<
b0 =
1A
1'
0(
1)
#208334
0#
0.
#312501
1#
1.
0:
b1101001010 ?
b1 =
1;
0<
0'
1(
0)
#416668
0#
0.
#520835
1#
1.
b11010010100 ?
b110100101 ?
b10 =
#625002
0#
0.
#729169
1#
1.
b11010010100 ?
1:
b11010010 ?
b11 =
1'
#833336
0#
0.
#937503
1#
1.
b11010010100 ?
0:
b1101001 ?
b100 =
0'
#1041670
0#
0.
#1145837
1#
1.
b11010010100 ?
1:
b110100 ?
b101 =
1'
#1250004
0#
0.
#1354171
1#
1.
b11010010100 ?
0:
b11010 ?
b110 =
0'
#1458338
0#
0.
#1562505
1#
1.
b11010010100 ?
b1101 ?
b111 =
#1666672
0#
0.
#1770839
1#
1.
b11010010100 ?
1:
b110 ?
b1000 =
1'
#1875006
0#
0.
#1979173
1#
1.
b11010010100 ?
0:
b11 ?
b1001 =
0'
#2083340
0#
0.
#2187507
1#
1.
b11010010100 ?
1:
b1 ?
b1010 =
1'
#2291674
0#
0.
#2395841
1#
1.
b11010010100 ?
b0 ?
b1011 =
#2500008
0#
0.
#2604175
1#
1.
b11010010100 ?
b0 =
0;
1<
0A
0(
1)
#2700000
b1 %
0$
11
0/
b10010010100 >
#2708342
0#
0.
#2812509
1#
1.
b10010010100 ?
1A
#2916676
0#
0.
#3020843
1#
1.
0:
b1001001010 ?
b1 =
1;
0<
0'
1(
0)
#3125010
0#
0.
#3229177
1#
1.
b10010010100 ?
b100100101 ?
b10 =
#3333344
0#
0.
#3437511
1#
1.
b10010010100 ?
1:
b10010010 ?
b11 =
1'
#3541678
0#
0.
#3645845
1#
1.
b10010010100 ?
0:
b1001001 ?
b100 =
0'
#3750012
0#
0.
#3854179
1#
1.
b10010010100 ?
1:
b100100 ?
b101 =
1'
#3958346
0#
0.
#4062513
1#
1.
b10010010100 ?
0:
b10010 ?
b110 =
0'
#4166680
0#
0.
#4270847
1#
1.
b10010010100 ?
b1001 ?
b111 =
#4375014
0#
0.
#4479181
1#
1.
b10010010100 ?
1:
b100 ?
b1000 =
1'
#4583348
0#
0.
#4687515
1#
1.
b10010010100 ?
0:
b10 ?
b1001 =
0'
#4791682
0#
0.
#4895849
1#
1.
b10010010100 ?
b1 ?
b1010 =
#5000016
0#
0.
#5104183
1#
1.
b10010010100 ?
1:
b0 ?
b1011 =
1'
#5208350
0#
0.
#5312517
1#
1.
b10010010100 ?
b0 =
0;
1<
0A
0(
1)
#5400000
b10 %
1$
01
10
1/
b11010010100 >
#5416684
0#
0.
#5520851
1#
1.
b11010010100 ?
1A
#5625018
0#
0.
#5729185
1#
1.
0:
b1101001010 ?
b1 =
1;
0<
0'
1(
0)
#5833352
0#
0.
#5937519
1#
1.
b11010010100 ?
b110100101 ?
b10 =
#6041686
0#
0.
#6145853
1#
1.
b11010010100 ?
1:
b11010010 ?
b11 =
1'
#6250020
0#
0.
#6354187
1#
1.
b11010010100 ?
0:
b1101001 ?
b100 =
0'
#6458354
0#
0.
#6562521
1#
1.
b11010010100 ?
1:
b110100 ?
b101 =
1'
#6666688
0#
0.
#6770855
1#
1.
b11010010100 ?
0:
b11010 ?
b110 =
0'
#6875022
0#
0.
#6979189
1#
1.
b11010010100 ?
b1101 ?
b111 =
#7083356
0#
0.
#7187523
1#
1.
b11010010100 ?
1:
b110 ?
b1000 =
1'
#7291690
0#
0.
#7395857
1#
1.
b11010010100 ?
0:
b11 ?
b1001 =
0'
#7500024
0#
0.
#7604191
1#
1.
b11010010100 ?
1:
b1 ?
b1010 =
1'
#7708358
0#
0.
#7812525
1#
1.
b11010010100 ?
b0 ?
b1011 =
#7916692
0#
0.
#8000000
b1011010 &
15
#8020859
1#
1.
b11010010100 ?
b0 =
0;
1<
0A
0(
1)
b1011010 @
b11010110100 >
#8100000
b11 %
11
#8125026
0#
0.
#8229193
1#
1.
b11010110100 ?
1A
#8333360
0#
0.
#8437527
1#
1.
0:
b1101011010 ?
b1 =
1;
0<
0'
1(
0)
#8541694
0#
0.
#8645861
1#
1.
b11010110100 ?
b110101101 ?
b10 =
#8750028
0#
0.
#8854195
1#
1.
b11010110100 ?
1:
b11010110 ?
b11 =
1'
#8958362
0#
0.
#9062529
1#
1.
b11010110100 ?
0:
b1101011 ?
b100 =
0'
#9166696
0#
0.
#9270863
1#
1.
b11010110100 ?
1:
b110101 ?
b101 =
1'
#9375030
0#
0.
#9479197
1#
1.
b11010110100 ?
b11010 ?
b110 =
#9583364
0#
0.
#9687531
1#
1.
b11010110100 ?
0:
b1101 ?
b111 =
0'
#9791698
0#
0.
#9895865
1#
1.
b11010110100 ?
1:
b110 ?
b1000 =
1'
#10000032
0#
0.
#10104199
1#
1.
b11010110100 ?
0:
b11 ?
b1001 =
0'
#10208366
0#
0.
#10312533
1#
1.
b11010110100 ?
1:
b1 ?
b1010 =
1'
#10416700
0#
0.
#10520867
1#
1.
b11010110100 ?
b0 ?
b1011 =
#10625034
0#
0.
#10729201
1#
1.
b11010110100 ?
b0 =
0;
1<
0A
0(
1)
#10833368
0#
0.
#10937535
1#
1.
1A
#11041702
0#
0.
#11145869
1#
1.
0:
b1101011010 ?
b1 =
1;
0<
0'
1(
0)
#11250036
0#
0.
#11354203
1#
1.
b11010110100 ?
b110101101 ?
b10 =
#11458370
0#
0.
#11562537
1#
1.
b11010110100 ?
1:
b11010110 ?
b11 =
1'
#11666704
0#
0.
#11770871
1#
1.
b11010110100 ?
0:
b1101011 ?
b100 =
0'
#11875038
0#
0.
#11979205
1#
1.
b11010110100 ?
1:
b110101 ?
b101 =
1'
