HW/UART/RxTest.vcd
$date
	Tue Dec 24 19:03:57 2024
$end
$version
	ModelSim Version 2020.1
$end
$timescale
	1ns
$end

$scope module Rx_tb $end
$var reg 1 ! reset_n $end
$var reg 1 " data_tx $end
$var reg 1 # clock $end
$var reg 2 $ parity_type [1:0] $end
$var reg 2 % baud_rate [1:0] $end
$var wire 1 & done_flag $end
$var wire 1 ' active_flag $end
$var wire 1 ( error_flag [2] $end
$var wire 1 ) error_flag [1] $end
$var wire 1 * error_flag [0] $end
$var wire 1 + data_out [7] $end
$var wire 1 , data_out [6] $end
$var wire 1 - data_out [5] $end
$var wire 1 . data_out [4] $end
$var wire 1 / data_out [3] $end
$var wire 1 0 data_out [2] $end
$var wire 1 1 data_out [1] $end
$var wire 1 2 data_out [0] $end

$scope module dut $end
$var wire 1 3 reset_n $end
$var wire 1 4 data_tx $end
$var wire 1 5 clock $end
$var wire 1 6 parity_type [1] $end
$var wire 1 7 parity_type [0] $end
$var wire 1 8 baud_rate [1] $end
$var wire 1 9 baud_rate [0] $end
$var wire 1 ' active_flag $end
$var wire 1 & done_flag $end
$var wire 1 ( error_flag [2] $end
$var wire 1 ) error_flag [1] $end
$var wire 1 * error_flag [0] $end
$var wire 1 + data_out [7] $end
$var wire 1 , data_out [6] $end
$var wire 1 - data_out [5] $end
$var wire 1 . data_out [4] $end
$var wire 1 / data_out [3] $end
$var wire 1 0 data_out [2] $end
$var wire 1 1 data_out [1] $end
$var wire 1 2 data_out [0] $end
$var wire 1 : baud_clk_w $end
$var wire 1 ; data_parll_w [10] $end
$var wire 1 < data_parll_w [9] $end
$var wire 1 = data_parll_w [8] $end
$var wire 1 > data_parll_w [7] $end
$var wire 1 ? data_parll_w [6] $end
$var wire 1 @ data_parll_w [5] $end
$var wire 1 A data_parll_w [4] $end
$var wire 1 B data_parll_w [3] $end
$var wire 1 C data_parll_w [2] $end
$var wire 1 D data_parll_w [1] $end
$var wire 1 E data_parll_w [0] $end
$var wire 1 F recieved_flag_w $end
$var wire 1 G def_par_bit_w $end
$var wire 1 H def_strt_bit_w $end
$var wire 1 I def_stp_bit_w $end

$scope module Unit1 $end
$var parameter 2 J BAUD24 $end
$var parameter 2 K BAUD48 $end
$var parameter 2 L BAUD96 $end
$var parameter 2 M BAUD192 $end
$var wire 1 3 reset_n $end
$var wire 1 5 clock $end
$var wire 1 8 baud_rate [1] $end
$var wire 1 9 baud_rate [0] $end
$var reg 1 N baud_clk $end
$var reg 10 O final_value [9:0] $end
$var reg 10 P clock_ticks [9:0] $end
$upscope $end

$scope module Unit2 $end
$var parameter 2 Q IDLE $end
$var parameter 2 R CENTER $end
$var parameter 2 S FRAME $end
$var parameter 2 T HOLD $end
$var wire 1 3 reset_n $end
$var wire 1 4 data_tx $end
$var wire 1 : baud_clk $end
$var reg 1 U active_flag $end
$var reg 1 V recieved_flag $end
$var reg 11 W data_parll [10:0] $end
$var reg 4 X frame_counter [3:0] $end
$var reg 4 Y stop_count [3:0] $end
$var reg 2 Z next_state [1:0] $end
$upscope $end

$scope module Unit3 $end
$var wire 1 3 reset_n $end
$var wire 1 F recieved_flag $end
$var wire 1 ; data_parll [10] $end
$var wire 1 < data_parll [9] $end
$var wire 1 = data_parll [8] $end
$var wire 1 > data_parll [7] $end
$var wire 1 ? data_parll [6] $end
$var wire 1 @ data_parll [5] $end
$var wire 1 A data_parll [4] $end
$var wire 1 B data_parll [3] $end
$var wire 1 C data_parll [2] $end
$var wire 1 D data_parll [1] $end
$var wire 1 E data_parll [0] $end
$var reg 1 [ parity_bit $end
$var reg 1 \ start_bit $end
$var reg 1 ] stop_bit $end
$var reg 1 ^ done_flag $end
$var reg 8 _ raw_data [7:0] $end
$upscope $end

$scope module Unit4 $end
$var parameter 2 ` ODD $end
$var parameter 2 a EVEN $end
$var parameter 2 b NOPARITY00 $end
$var parameter 2 c NOPARITY11 $end
$var wire 1 3 reset_n $end
$var wire 1 & recieved_flag $end
$var wire 1 G parity_bit $end
$var wire 1 H start_bit $end
$var wire 1 I stop_bit $end
$var wire 1 6 parity_type [1] $end
$var wire 1 7 parity_type [0] $end
$var wire 1 + raw_data [7] $end
$var wire 1 , raw_data [6] $end
$var wire 1 - raw_data [5] $end
$var wire 1 . raw_data [4] $end
$var wire 1 / raw_data [3] $end
$var wire 1 0 raw_data [2] $end
$var wire 1 1 raw_data [1] $end
$var wire 1 2 raw_data [0] $end
$var reg 3 d error_flag [2:0] $end
$var reg 1 e error_parity $end
$var reg 1 f parity_flag $end
$var reg 1 g start_flag $end
$var reg 1 h stop_flag $end
$upscope $end
$upscope $end
$upscope $end
$enddefinitions $end
#0
$dumpvars
0!
1"
0#
b10 $
b11 %
0N
b1010001 O
b0 P
xU
xV
bx W
bx X
bx Y
b0 Z
1[
0\
1]
1^
b11111111 _
b0 d
0e
0f
0g
0h
b0 J
b1 K
b10 L
b11 M
b0 Q
b1 R
b10 S
b11 T
b1 `
b10 a
b0 b
b11 c
1&
x'
0*
0)
0(
12
11
10
1/
1.
1-
1,
1+
0:
xE
xD
xC
xB
xA
x@
x?
x>
x=
x<
x;
xF
1G
0H
1I
19
18
07
16
05
14
03
$end
#10
1!
1#
13
15
b1 P
0^
1f
0&
b1 d
1*
0f
b0 d
0*
#20
0#
05
#30
1#
15
b10 P
#40
0#
05
#50
1#
15
b11 P
#60
0#
05
#70
1#
15
b100 P
#80
0#
05
#90
1#
15
b101 P
#100
0#
05
#110
1#
15
b110 P
#120
0#
05
#130
1#
15
b111 P
#140
0#
05
#150
1#
15
b1000 P
#160
0#
05
#170
1#
15
b1001 P
#180
0#
05
#190
1#
15
b1010 P
#200
0#
05
#210
1#
15
b1011 P
#220
0#
05
#230
1#
15
b1100 P
#240
0#
05
#250
1#
15
b1101 P
#260
0#
05
#270
1#
15
b1110 P
#280
0#
05
#290
1#
15
b1111 P
#300
0#
05
#310
1#
15
b10000 P
#320
0#
05
#330
1#
15
b10001 P
#340
0#
05
#350
1#
15
b10010 P
#360
0#
05
#370
1#
15
b10011 P
#380
0#
05
#390
1#
15
b10100 P
#400
0#
05
#410
1#
15
b10101 P
#420
0#
05
#430
1#
15
b10110 P
#440
0#
05
#450
1#
15
b10111 P
#460
0#
05
#470
1#
15
b11000 P
#480
0#
05
#490
1#
15
b11001 P
#500
0#
05
#510
1#
15
b11010 P
#520
0#
05
#530
1#
15
b11011 P
#540
0#
05
#550
1#
15
b11100 P
#560
0#
05
#570
1#
15
b11101 P
#580
0#
05
#590
1#
15
b11110 P
#600
0#
05
#610
1#
15
b11111 P
#620
0#
05
#630
1#
15
b100000 P
#640
0#
05
#650
1#
15
b100001 P
#660
0#
05
#670
1#
15
b100010 P
#680
0#
05
#690
1#
15
b100011 P
#700
0#
05
#710
1#
15
b100100 P
#720
0#
05
#730
1#
15
b100101 P
#740
0#
05
#750
1#
15
b100110 P
#760
0#
05
#770
1#
15
b100111 P
#780
0#
05
#790
1#
15
b101000 P
#800
0#
05
#810
1#
15
b101001 P
#820
0#
05
#830
1#
15
b101010 P
#840
0#
05
#850
1#
15
b101011 P
#860
0#
05
#870
1#
15
b101100 P
#880
0#
05
#890
1#
15
b101101 P
#900
0#
05
#910
1#
15
b101110 P
#920
0#
05
#930
1#
15
b101111 P
#940
0#
05
#950
1#
15
b110000 P
#960
0#
05
#970
1#
15
b110001 P
#980
0#
05
#990
1#
15
b110010 P
#1000
0#
05
#1010
1#
15
b110011 P
#1020
0#
05
#1030
1#
15
b110100 P
#1040
0#
05
#1050
1#
15
b110101 P
#1060
0#
05
#1070
1#
15
b110110 P
#1080
0#
05
#1090
1#
15
b110111 P
#1100
0#
05
#1110
1#
15
b111000 P
#1120
0#
05
#1130
1#
15
b111001 P
#1140
0#
05
#1150
1#
15
b111010 P
#1160
0#
05
#1170
1#
15
b111011 P
#1180
0#
05
#1190
1#
15
b111100 P
#1200
0#
05
#1210
1#
15
b111101 P
#1220
0#
05
#1230
1#
15
b111110 P
#1240
0#
05
#1250
1#
15
b111111 P
#1260
0#
05
#1270
1#
15
b1000000 P
#1280
0#
05
#1290
1#
15
b1000001 P
#1300
0#
05
#1310
1#
15
b1000010 P
#1320
0#
05
#1330
1#
15
b1000011 P
#1340
0#
05
#1350
1#
15
b1000100 P
#1360
0#
05
#1370
1#
15
b1000101 P
#1380
0#
05
#1390
1#
15
b1000110 P
#1400
0#
05
#1410
1#
15
b1000111 P
#1420
0#
05
#1430
1#
15
b1001000 P
#1440
0#
05
#1450
1#
15
b1001001 P
#1460
0#
05
#1470
1#
15
b1001010 P
#1480
0#
05
#1490
1#
15
b1001011 P
#1500
0#
05
#1510
1#
15
b1001100 P
#1520
0#
05
#1530
1#
15
b1001101 P
#1540
0#
05
#1550
1#
15
b1001110 P
#1560
0#
05
#1570
1#
15
b1001111 P
#1580
0#
05
#1590
1#
15
b1010000 P
#1600
0#
05
#1610
1#
15
b1010001 P
#1620
0#
05
#1630
1#
15
1N
b0 P
1:
b11111111111 W
b0 Y
b0 X
0V
0U
0'
1E
1D
1C
1B
1A
1@
1?
1>
1=
1<
1;
0F
#1640
0#
05
#1650
1#
15
b1 P
#1660
0#
05
#1670
1#
15
b10 P
#1680
0#
05
#1690
1#
15
b11 P
#1700
0#
05
#1710
1#
15
b100 P
#1720
0#
05
#1730
1#
15
b101 P
#1740
0#
05
#1750
1#
15
b110 P
#1760
0#
05
#1770
1#
15
b111 P
#1780
0#
05
#1790
1#
15
b1000 P
#1800
0#
05
#1810
1#
15
b1001 P
#1820
0#
05
#1830
1#
15
b1010 P
#1840
0#
05
#1850
1#
15
b1011 P
#1860
0#
05
#1870
1#
15
b1100 P
#1880
0#
05
#1890
1#
15
b1101 P
#1900
0#
05
#1910
1#
15
b1110 P
#1920
0#
05
#1930
1#
15
b1111 P
#1940
0#
05
#1950
1#
15
b10000 P
#1960
0#
05
#1970
1#
15
b10001 P
#1980
0#
05
#1990
1#
15
b10010 P
#2000
0#
05
#2010
1#
15
b10011 P
#2020
0#
05
#2030
1#
15
b10100 P
#2040
0#
05
#2050
1#
15
b10101 P
#2060
0#
05
#2070
1#
15
b10110 P
#2080
0#
05
#2090
1#
15
b10111 P
#2100
0#
05
#2110
1#
15
b11000 P
#2120
0#
05
#2130
1#
15
b11001 P
#2140
0#
05
#2150
1#
15
b11010 P
#2160
0#
05
#2170
1#
15
b11011 P
#2180
0#
05
#2190
1#
15
b11100 P
#2200
0#
05
#2210
1#
15
b11101 P
#2220
0#
05
#2230
1#
15
b11110 P
#2240
0#
05
#2250
1#
15
b11111 P
#2260
0#
05
#2270
1#
15
b100000 P
#2280
0#
05
#2290
1#
15
b100001 P
#2300
0#
05
#2310
1#
15
b100010 P
#2320
0#
05
#2330
1#
15
b100011 P
#2340
0#
05
#2350
1#
15
b100100 P
#2360
0#
05
#2370
1#
15
b100101 P
#2380
0#
05
#2390
1#
15
b100110 P
#2400
0#
05
#2410
1#
15
b100111 P
#2420
0#
05
#2430
1#
15
b101000 P
#2440
0#
05
#2450
1#
15
b101001 P
#2460
0#
05
#2470
1#
15
b101010 P
#2480
0#
05
#2490
1#
15
b101011 P
#2500
0#
05
#2510
1#
15
b101100 P
#2520
0#
05
#2530
1#
15
b101101 P
#2540
0#
05
#2550
1#
15
b101110 P
#2560
0#
05
#2570
1#
15
b101111 P
#2580
0#
05
#2590
1#
15
b110000 P
#2600
0#
05
#2610
1#
15
b110001 P
#2620
0#
05
#2630
1#
15
b110010 P
#2640
0#
05
#2650
1#
15
b110011 P
#2660
0#
05
#2670
1#
15
b110100 P
#2680
0#
05
#2690
1#
15
b110101 P
#2700
0#
05
#2710
1#
15
b110110 P
#2720
0#
05
#2730
1#
15
b110111 P
#2740
0#
05
#2750
1#
15
b111000 P
#2760
0#
05
#2770
1#
15
b111001 P
#2780
0#
05
#2790
1#
15
b111010 P
#2800
0#
05
#2810
1#
15
b111011 P
#2820
0#
05
#2830
1#
15
b111100 P
#2840
0#
05
#2850
1#
15
b111101 P
#2860
0#
05
#2870
1#
15
b111110 P
#2880
0#
05
#2890
1#
15
b111111 P
#2900
0#
05
#2910
1#
15
b1000000 P
#2920
0#
05
#2930
1#
15
b1000001 P
#2940
0#
05
#2950
1#
15
b1000010 P
#2960
0#
05
#2970
1#
15
b1000011 P
#2980
0#
05
#2990
1#
15
b1000100 P
#3000
0#
05
#3010
1#
15
b1000101 P
#3020
0#
05
#3030
1#
15
b1000110 P
#3040
0#
05
#3050
1#
15
b1000111 P
#3060
0#
05
#3070
1#
15
b1001000 P
#3080
0#
05
#3090
1#
15
b1001001 P
#3100
0#
05
#3110
1#
15
b1001010 P
#3120
0#
05
#3130
1#
15
b1001011 P
#3140
0#
05
#3150
1#
15
b1001100 P
#3160
0#
05
#3170
1#
15
b1001101 P
#3180
0#
05
#3190
1#
15
b1001110 P
#3200
0#
05
#3210
1#
15
b1001111 P
#3220
0#
05
#3230
1#
15
b1010000 P
#3240
0#
05
#3250
1#
15
b1010001 P
#3260
0#
05
#3270
1#
15
0N
b0 P
0:
#3280
0#
05
#3290
1#
15
b1 P
#3300
0#
05
#3310
1#
15
b10 P
#3320
0#
05
#3330
1#
15
b11 P
#3340
0#
05
#3350
1#
15
b100 P
#3360
0#
05
#3370
1#
15
b101 P
#3380
0#
05
#3390
1#
15
b110 P
#3400
0#
05
#3410
1#
15
b111 P
#3420
0#
05
#3430
1#
15
b1000 P
#3440
0#
05
#3450
1#
15
b1001 P
#3460
0#
05
#3470
1#
15
b1010 P
#3480
0#
05
#3490
1#
15
b1011 P
#3500
0#
05
#3510
1#
15
b1100 P
#3520
0#
05
#3530
1#
15
b1101 P
#3540
0#
05
#3550
1#
15
b1110 P
#3560
0#
05
#3570
1#
15
b1111 P
#3580
0#
05
#3590
1#
15
b10000 P
#3600
0#
05
#3610
1#
15
b10001 P
#3620
0#
05
#3630
1#
15
b10010 P
#3640
0#
05
#3650
1#
15
b10011 P
#3660
0#
05
#3670
1#
15
b10100 P
#3680
0#
05
#3690
1#
15
b10101 P
#3700
0#
05
#3710
1#
15
b10110 P
#3720
0#
05
#3730
1#
15
b10111 P
#3740
0#
05
#3750
1#
15
b11000 P
#3760
0#
05
#3770
1#
15
b11001 P
#3780
0#
05
#3790
1#
15
b11010 P
#3800
0#
05
#3810
1#
15
b11011 P
#3820
0#
05
#3830
1#
15
b11100 P
#3840
0#
05
#3850
1#
15
b11101 P
#3860
0#
05
#3870
1#
15
b11110 P
#3880
0#
05
#3890
1#
15
b11111 P
#3900
0#
05
#3910
1#
15
b100000 P
#3920
0#
05
#3930
1#
15
b100001 P
#3940
0#
05
#3950
1#
15
b100010 P
#3960
0#
05
#3970
1#
15
b100011 P
#3980
0#
05
#3990
1#
15
b100100 P
#4000
0#
05
#4010
1#
15
b100101 P
#4020
0#
05
#4030
1#
15
b100110 P
#4040
0#
05
#4050
1#
15
b100111 P
#4060
0#
05
#4070
1#
15
b101000 P
#4080
0#
05
#4090
1#
15
b101001 P
#4100
0#
05
#4110
1#
15
b101010 P
#4120
0#
05
#4130
1#
15
b101011 P
#4140
0#
05
#4150
1#
15
b101100 P
#4160
0#
05
#4170
1#
15
b101101 P
#4180
0#
05
#4190
1#
15
b101110 P
#4200
0#
05
#4210
1#
15
b101111 P
#4220
0#
05
#4230
1#
15
b110000 P
#4240
0#
05
#4250
1#
15
b110001 P
#4260
0#
05
#4270
1#
15
b110010 P
#4280
0#
05
#4290
1#
15
b110011 P
#4300
0#
05
#4310
1#
15
b110100 P
#4320
0#
05
#4330
1#
15
b110101 P
#4340
0#
05
#4350
1#
15
b110110 P
#4360
0#
05
#4370
1#
15
b110111 P
#4380
0#
05
#4390
1#
15
b111000 P
#4400
0#
05
#4410
1#
15
b111001 P
#4420
0#
05
#4430
1#
15
b111010 P
#4440
0#
05
#4450
1#
15
b111011 P
#4460
0#
05
#4470
1#
15
b111100 P
#4480
0#
05
#4490
1#
15
b111101 P
#4500
0#
05
#4510
1#
15
b111110 P
#4520
0#
05
#4530
1#
15
b111111 P
#4540
0#
05
#4550
1#
15
b1000000 P
#4560
0#
05
#4570
1#
15
b1000001 P
#4580
0#
05
#4590
1#
15
b1000010 P
#4600
0#
05
#4610
1#
15
b1000011 P
#4620
0#
05
#4630
1#
15
b1000100 P
#4640
0#
05
#4650
1#
15
b1000101 P
#4660
0#
05
#4670
1#
15
b1000110 P
#4680
0#
05
#4690
1#
15
b1000111 P
#4700
0#
05
#4710
1#
15
b1001000 P
#4720
0#
05
#4730
1#
15
b1001001 P
#4740
0#
05
#4750
1#
15
b1001010 P
#4760
0#
05
#4770
1#
15
b1001011 P
#4780
0#
05
#4790
1#
15
b1001100 P
#4800
0#
05
#4810
1#
15
b1001101 P
#4820
0#
05
#4830
1#
15
b1001110 P
#4840
0#
05
#4850
1#
15
b1001111 P
#4860
0#
05
#4870
1#
15
b1010000 P
#4880
0#
05
#4890
1#
15
b1010001 P
#4900
0#
05
#4910
1#
15
1N
b0 P
1:
#4920
0#
05
#4930
1#
15
b1 P
#4940
0#
05
#4950
1#
15
b10 P
#4960
0#
05
#4970
1#
15
b11 P
#4980
0#
05
#4990
1#
15
b100 P
#5000
0#
05
#5010
1#
15
b101 P
#5020
0#
05
#5030
1#
15
b110 P
#5040
0#
05
#5050
1#
15
b111 P
#5060
0#
05
#5070
1#
15
b1000 P
#5080
0#
05
#5090
1#
15
b1001 P
#5100
0#
05
#5110
1#
15
b1010 P
#5120
0#
05
#5130
1#
15
b1011 P
#5140
0#
05
#5150
1#
15
b1100 P
#5160
0#
05
#5170
1#
15
b1101 P
#5180
0#
05
#5190
1#
15
b1110 P
#5200
0#
05
#5210
1#
15
b1111 P
#5220
0#
05
#5230
1#
15
b10000 P
#5240
0#
05
#5250
1#
15
b10001 P
#5260
0#
05
#5270
1#
15
b10010 P
#5280
0#
05
#5290
1#
15
b10011 P
#5300
0#
05
#5310
1#
15
b10100 P
#5320
0#
05
#5330
1#
15
b10101 P
#5340
0#
05
#5350
1#
15
b10110 P
#5360
0#
05
#5370
1#
15
b10111 P
#5380
0#
05
#5390
1#
15
b11000 P
#5400
0#
05
#5410
1#
15
b11001 P
#5420
0#
05
#5430
1#
15
b11010 P
#5440
0#
05
#5450
1#
15
b11011 P
#5460
0#
05
#5470
1#
15
b11100 P
#5480
0#
05
#5490
1#
15
b11101 P
#5500
0#
05
#5510
1#
15
b11110 P
#5520
0#
05
#5530
1#
15
b11111 P
#5540
0#
05
#5550
1#
15
b100000 P
#5560
0#
05
#5570
1#
15
b100001 P
#5580
0#
05
#5590
1#
15
b100010 P
#5600
0#
05
#5610
1#
15
b100011 P
#5620
0#
05
#5630
1#
15
b100100 P
#5640
0#
05
#5650
1#
15
b100101 P
#5660
0#
05
#5670
1#
15
b100110 P
#5680
0#
05
#5690
1#
15
b100111 P
#5700
0#
05
#5710
1#
15
b101000 P
#5720
0#
05
#5730
1#
15
b101001 P
#5740
0#
05
#5750
1#
15
b101010 P
#5760
0#
05
#5770
1#
15
b101011 P
#5780
0#
05
#5790
1#
15
b101100 P
#5800
0#
05
#5810
1#
15
b101101 P
#5820
0#
05
#5830
1#
15
b101110 P
#5840
0#
05
#5850
1#
15
b101111 P
#5860
0#
05
#5870
1#
15
b110000 P
#5880
0#
05
#5890
1#
15
b110001 P
#5900
0#
05
#5910
1#
15
b110010 P
#5920
0#
05
#5930
1#
15
b110011 P
#5940
0#
05
#5950
1#
15
b110100 P
#5960
0#
05
#5970
1#
15
b110101 P
#5980
0#
05
#5990
1#
15
b110110 P
#6000
0#
05
#6010
1#
15
b110111 P
#6020
0#
05
#6030
1#
15
b111000 P
#6040
0#
05
#6050
1#
15
b111001 P
#6060
0#
05
#6070
1#
15
b111010 P
#6080
0#
05
#6090
1#
15
b111011 P
#6100
0#
05
#6110
1#
15
b111100 P
#6120
0#
05
#6130
1#
15
b111101 P
#6140
0#
05
#6150
1#
15
b111110 P
#6160
0#
05
#6170
1#
15
b111111 P
#6180
0#
05
#6190
1#
15
b1000000 P
#6200
0#
05
#6210
1#
15
b1000001 P
#6220
0#
05
#6230
1#
15
b1000010 P
#6240
0#
05
#6250
1#
15
b1000011 P
#6260
0#
05
#6270
1#
15
b1000100 P
#6280
0#
05
#6290
1#
15
b1000101 P
#6300
0#
05
#6310
1#
15
b1000110 P
#6320
0#
05
#6330
1#
15
b1000111 P
#6340
0#
05
#6350
1#
15
b1001000 P
#6360
0#
05
#6370
1#
15
b1001001 P
#6380
0#
05
#6390
1#
15
b1001010 P
#6400
0#
05
#6410
1#
15
b1001011 P
#6420
0#
05
#6430
1#
15
b1001100 P
#6440
0#
05
#6450
1#
15
b1001101 P
#6460
0#
05
#6470
1#
15
b1001110 P
#6480
0#
05
#6490
1#
15
b1001111 P
#6500
0#
05
#6510
1#
15
b1010000 P
#6520
0#
05
#6530
1#
15
b1010001 P
#6540
0#
05
#6550
1#
15
0N
b0 P
0:
#6560
0#
05
#6570
1#
15
b1 P
#6580
0#
05
#6590
1#
15
b10 P
#6600
0#
05
#6610
1#
15
b11 P
#6620
0#
05
#6630
1#
15
b100 P
#6640
0#
05
#6650
1#
15
b101 P
#6660
0#
05
#6670
1#
15
b110 P
#6680
0#
05
#6690
1#
15
b111 P
#6700
0#
05
#6710
1#
15
b1000 P
#6720
0#
05
#6730
1#
15
b1001 P
#6740
0#
05
#6750
1#
15
b1010 P
#6760
0#
05
#6770
1#
15
b1011 P
#6780
0#
05
#6790
1#
15
b1100 P
#6800
0#
05
#6810
1#
15
b1101 P
#6820
0#
05
#6830
1#
15
b1110 P
#6840
0#
05
#6850
1#
15
b1111 P
#6860
0#
05
#6870
1#
15
b10000 P
#6880
0#
05
#6890
1#
15
b10001 P
#6900
0#
05
#6910
1#
15
b10010 P
#6920
0#
05
#6930
1#
15
b10011 P
#6940
0#
05
#6950
1#
15
b10100 P
#6960
0#
05
#6970
1#
15
b10101 P
#6980
0#
05
#6990
1#
15
b10110 P
#7000
0#
05
#7010
1#
15
b10111 P
#7020
0#
05
#7030
1#
15
b11000 P
#7040
0#
05
#7050
1#
15
b11001 P
#7060
0#
05
#7070
1#
15
b11010 P
#7080
0#
05
#7090
1#
15
b11011 P
#7100
0#
05
#7110
1#
15
b11100 P
#7120
0#
05
#7130
1#
15
b11101 P
#7140
0#
05
#7150
1#
15
b11110 P
#7160
0#
05
#7170
1#
15
b11111 P
#7180
0#
05
#7190
1#
15
b100000 P
#7200
0#
05
#7210
1#
15
b100001 P
#7220
0#
05
#7230
1#
15
b100010 P
#7240
0#
05
#7250
1#
15
b100011 P
#7260
0#
05
#7270
1#
15
b100100 P
#7280
0#
05
#7290
1#
15
b100101 P
#7300
0#
05
#7310
1#
15
b100110 P
#7320
0#
05
#7330
1#
15
b100111 P
#7340
0#
05
#7350
1#
15
b101000 P
#7360
0#
05
#7370
1#
15
b101001 P
#7380
0#
05
#7390
1#
15
b101010 P
#7400
0#
05
#7410
1#
15
b101011 P
#7420
0#
05
#7430
1#
15
b101100 P
#7440
0#
05
#7450
1#
15
b101101 P
#7460
0#
05
#7470
1#
15
b101110 P
#7480
0#
05
#7490
1#
15
b101111 P
#7500
0#
05
#7510
1#
15
b110000 P
#7520
0#
05
#7530
1#
15
b110001 P
#7540
0#
05
#7550
1#
15
b110010 P
#7560
0#
05
#7570
1#
15
b110011 P
#7580
0#
05
#7590
1#
15
b110100 P
#7600
0#
05
#7610
1#
15
b110101 P
#7620
0#
05
#7630
1#
15
b110110 P
#7640
0#
05
#7650
1#
15
b110111 P
#7660
0#
05
#7670
1#
15
b111000 P
#7680
0#
05
#7690
1#
15
b111001 P
#7700
0#
05
#7710
1#
15
b111010 P
#7720
0#
05
#7730
1#
15
b111011 P
#7740
0#
05
#7750
1#
15
b111100 P
#7760
0#
05
#7770
1#
15
b111101 P
#7780
0#
05
#7790
1#
15
b111110 P
#7800
0#
05
#7810
1#
15
b111111 P
#7820
0#
05
#7830
1#
15
b1000000 P
#7840
0#
05
#7850
1#
15
b1000001 P
#7860
0#
05
#7870
1#
15
b1000010 P
#7880
0#
05
#7890
1#
15
b1000011 P
#7900
0#
05
#7910
1#
15
b1000100 P
#7920
0#
05
#7930
1#
15
b1000101 P
#7940
0#
05
#7950
1#
15
b1000110 P
#7960
0#
05
#7970
1#
15
b1000111 P
#7980
0#
05
#7990
1#
15
b1001000 P
#8000
0#
05
#8010
1#
15
b1001001 P
#8020
0#
05
#8030
1#
15
b1001010 P
#8040
0#
05
#8050
1#
15
b1001011 P
#8060
0#
05
#8070
1#
15
b1001100 P
#8080
0#
05
#8090
1#
15
b1001101 P
#8100
0#
05
#8110
1#
15
b1001110 P
#8120
0#
05
#8130
1#
15
b1001111 P
#8140
0#
05
#8150
1#
15
b1010000 P
#8160
0#
05
#8170
1#
15
b1010001 P
#8180
0#
05
#8190
1#
15
1N
b0 P
1:
#8200
0#
05
#8210
1#
15
b1 P
#8220
0#
05
#8230
1#
15
b10 P
#8240
0#
05
#8250
1#
15
b11 P
#8260
0#
05
#8270
1#
15
b100 P
#8280
0#
05
#8290
1#
15
b101 P
#8300
0#
05
#8310
1#
15
b110 P
#8320
0#
05
#8330
1#
15
b111 P
#8340
0#
05
#8350
1#
15
b1000 P
#8360
0#
05
#8370
1#
15
b1001 P
#8380
0#
05
#8390
1#
15
b1010 P
#8400
0#
05
#8410
1#
15
b1011 P
#8420
0#
05
#8430
1#
15
b1100 P
#8440
0#
05
#8450
1#
15
b1101 P
#8460
0#
05
#8470
1#
15
b1110 P
#8480
0#
05
#8490
1#
15
b1111 P
#8500
0#
05
#8510
1#
15
b10000 P
#8520
0#
05
#8530
1#
15
b10001 P
#8540
0#
05
#8550
1#
15
b10010 P
#8560
0#
05
#8570
1#
15
b10011 P
#8580
0#
05
#8590
1#
15
b10100 P
#8600
0#
05
#8610
1#
15
b10101 P
#8620
0#
05
#8630
1#
15
b10110 P
#8640
0#
05
#8650
1#
15
b10111 P
#8660
0#
05
#8670
1#
15
b11000 P
#8680
0#
05
#8690
1#
15
b11001 P
#8700
0#
05
#8710
1#
15
b11010 P
#8720
0#
05
#8730
1#
15
b11011 P
#8740
0#
05
#8750
1#
15
b11100 P
#8760
0#
05
#8770
1#
15
b11101 P
#8780
0#
05
#8790
1#
15
b11110 P
#8800
0#
05
#8810
1#
15
b11111 P
#8820
0#
05
#8830
1#
15
b100000 P
#8840
0#
05
#8850
1#
15
b100001 P
#8860
0#
05
#8870
1#
15
b100010 P
#8880
0#
05
#8890
1#
15
b100011 P
#8900
0#
05
#8910
1#
15
b100100 P
#8920
0#
05
#8930
1#
15
b100101 P
#8940
0#
05
#8950
1#
15
b100110 P
#8960
0#
05
#8970
1#
15
b100111 P
#8980
0#
05
#8990
1#
15
b101000 P
#9000
0#
05
#9010
1#
15
b101001 P
#9020
0#
05
#9030
1#
15
b101010 P
#9040
0#
05
#9050
1#
15
b101011 P
#9060
0#
05
#9070
1#
15
b101100 P
#9080
0#
05
#9090
1#
15
b101101 P
#9100
0#
05
#9110
1#
15
b101110 P
#9120
0#
05
#9130
1#
15
b101111 P
#9140
0#
05
#9150
1#
15
b110000 P
#9160
0#
05
#9170
1#
15
b110001 P
#9180
0#
05
#9190
1#
15
b110010 P
#9200
0#
05
#9210
1#
15
b110011 P
#9220
0#
05
#9230
1#
15
b110100 P
#9240
0#
05
#9250
1#
15
b110101 P
#9260
0#
05
#9270
1#
15
b110110 P
#9280
0#
05
#9290
1#
15
b110111 P
#9300
0#
05
#9310
1#
15
b111000 P
#9320
0#
05
#9330
1#
15
b111001 P
#9340
0#
05
#9350
1#
15
b111010 P
#9360
0#
05
#9370
1#
15
b111011 P
#9380
0#
05
#9390
1#
15
b111100 P
#9400
0#
05
#9410
1#
15
b111101 P
#9420
0#
05
#9430
1#
15
b111110 P
#9440
0#
05
#9450
1#
15
b111111 P
#9460
0#
05
#9470
1#
15
b1000000 P
#9480
0#
05
#9490
1#
15
b1000001 P
#9500
0#
05
#9510
1#
15
b1000010 P
#9520
0#
05
#9530
1#
15
b1000011 P
#9540
0#
05
#9550
1#
15
b1000100 P
#9560
0#
05
#9570
1#
15
b1000101 P
#9580
0#
05
#9590
1#
15
b1000110 P
#9600
0#
05
#9610
1#
15
b1000111 P
#9620
0#
05
#9630
1#
15
b1001000 P
#9640
0#
05
#9650
1#
15
b1001001 P
#9660
0#
05
#9670
1#
15
b1001010 P
#9680
0#
05
#9690
1#
15
b1001011 P
#9700
0#
05
#9710
1#
15
b1001100 P
#9720
0#
05
#9730
1#
15
b1001101 P
#9740
0#
05
#9750
1#
15
b1001110 P
#9760
0#
05
#9770
1#
15
b1001111 P
#9780
0#
05
#9790
1#
15
b1010000 P
#9800
0#
05
#9810
1#
15
b1010001 P
#9820
0#
05
#9830
1#
15
0N
b0 P
0:
#9840
0#
05
#9850
1#
15
b1 P
#9860
0#
05
#9870
1#
15
b10 P
#9880
0#
05
#9890
1#
15
b11 P
#9900
0#
05
#9910
1#
15
b100 P
#9920
0#
05
#9930
1#
15
b101 P
#9940
0#
05
#9950
1#
15
b110 P
#9960
0#
05
#9970
1#
15
b111 P
#9980
0#
05
#9990
1#
15
b1000 P
#10000
0#
05
#10010
1#
15
b1001 P
#10020
0#
05
#10030
1#
15
b1010 P
#10040
0#
05
#10050
1#
15
b1011 P
#10060
0#
05
#10070
1#
15
b1100 P
#10080
0#
05
#10090
1#
15
b1101 P
#10100
0#
05
#10110
1#
15
b1110 P
#10120
0#
05
#10130
1#
15
b1111 P
#10140
0#
05
#10150
1#
15
b10000 P
#10160
0#
05
#10170
1#
15
b10001 P
#10180
0#
05
#10190
1#
15
b10010 P
#10200
0#
05
#10210
1#
15
b10011 P
#10220
0#
05
#10230
1#
15
b10100 P
#10240
0#
05
#10250
1#
15
b10101 P
