HW/UART/SipoTest.vcd
$date
	Tue Dec 24 17:53:52 2024
$end
$version
	ModelSim Version 2020.1
$end
$timescale
	1ns
$end

$scope module SIPO_tb $end
$var reg 1 ! reset_n $end
$var reg 1 " data_tx $end
$var reg 1 # baud_clk $end
$var wire 1 $ active_flag $end
$var wire 1 % recieved_flag $end
$var wire 1 & data_parll [10] $end
$var wire 1 ' data_parll [9] $end
$var wire 1 ( data_parll [8] $end
$var wire 1 ) data_parll [7] $end
$var wire 1 * data_parll [6] $end
$var wire 1 + data_parll [5] $end
$var wire 1 , data_parll [4] $end
$var wire 1 - data_parll [3] $end
$var wire 1 . data_parll [2] $end
$var wire 1 / data_parll [1] $end
$var wire 1 0 data_parll [0] $end

$scope module dut $end
$var parameter 2 1 IDLE $end
$var parameter 2 2 CENTER $end
$var parameter 2 3 FRAME $end
$var parameter 2 4 HOLD $end
$var wire 1 5 reset_n $end
$var wire 1 6 data_tx $end
$var wire 1 7 baud_clk $end
$var reg 1 8 active_flag $end
$var reg 1 9 recieved_flag $end
$var reg 11 : data_parll [10:0] $end
$var reg 4 ; frame_counter [3:0] $end
$var reg 4 < stop_count [3:0] $end
$var reg 2 = next_state [1:0] $end
$upscope $end
$upscope $end
$enddefinitions $end
#0
$dumpvars
0!
1"
0#
x8
x9
bx :
bx ;
bx <
b0 =
b0 1
b1 2
b10 3
b11 4
x$
x%
x0
x/
x.
x-
x,
x+
x*
x)
x(
x'
x&
07
16
05
$end
#100
1!
15
#3255
1#
17
b11111111111 :
b0 <
b0 ;
09
08
10
1/
1.
1-
1,
1+
1*
1)
1(
1'
1&
0%
0$
#6510
0#
07
#9765
1#
17
#13020
0#
07
#16275
1#
17
#19530
0#
07
#22785
1#
17
#26040
0#
07
#29295
1#
17
#32550
0#
07
#35805
1#
17
#39060
0#
07
#42315
1#
17
#45570
0#
07
#48825
1#
17
#52080
0#
07
#55335
1#
17
#58590
0#
07
#61845
1#
17
#65100
0#
07
#68355
1#
17
#71610
0#
07
#74865
1#
17
#78120
0#
07
#81375
1#
17
#84630
0#
07
#87885
1#
17
#91140
0#
07
#94395
1#
17
#97650
0#
07
#100905
1#
17
#104160
0#
07
#104167
0"
06
#107415
1#
17
b1 =
18
1$
#110670
0#
07
#113925
1#
17
b1 <
#117180
0#
07
#120435
1#
17
b10 <
#123690
0#
07
#126945
1#
17
b11 <
#130200
0#
07
#133455
1#
17
b100 <
#136710
0#
07
#139965
1#
17
b101 <
#143220
0#
07
#146475
1#
17
b110 <
#149730
0#
07
#152985
1#
17
b111 <
#156240
0#
07
#159495
1#
17
b11111111110 :
b0 <
b10 =
00
#162750
0#
07
#166005
1#
17
b1 <
#169260
0#
07
#172515
1#
17
b10 <
#175770
0#
07
#179025
1#
17
b11 <
#182280
0#
07
#185535
1#
17
b100 <
#188790
0#
07
#192045
1#
17
b101 <
#195300
0#
07
#198555
1#
17
b110 <
#201810
0#
07
#205065
1#
17
b111 <
#208320
0#
07
#208334
1"
16
#211575
1#
17
b1000 <
#214830
0#
07
#218085
1#
17
b1001 <
#221340
0#
07
#224595
1#
17
b1010 <
#227850
0#
07
#231105
1#
17
b1011 <
#234360
0#
07
#237615
1#
17
b1100 <
#240870
0#
07
#244125
1#
17
b1101 <
#247380
0#
07
#250635
1#
17
b1110 <
#253890
0#
07
#257145
1#
17
b1111 <
#260400
0#
07
#263655
1#
17
b1 ;
b0 <
#266910
0#
07
#270165
1#
17
b1 <
#273420
0#
07
#276675
1#
17
b10 <
#279930
0#
07
#283185
1#
17
b11 <
#286440
0#
07
#289695
1#
17
b100 <
#292950
0#
07
#296205
1#
17
b101 <
#299460
0#
07
#302715
1#
17
b110 <
#305970
0#
07
#309225
1#
17
b111 <
#312480
0#
07
#312501
0"
06
#315735
1#
17
b1000 <
#318990
0#
07
#322245
1#
17
b1001 <
#325500
0#
07
#328755
1#
17
b1010 <
#332010
0#
07
#335265
1#
17
b1011 <
#338520
0#
07
#341775
1#
17
b1100 <
#345030
0#
07
#348285
1#
17
b1101 <
#351540
0#
07
#354795
1#
17
b1110 <
#358050
0#
07
#361305
1#
17
b1111 <
#364560
0#
07
#367815
1#
17
b11111111010 :
b10 ;
b0 <
0.
#371070
0#
07
#374325
1#
17
b1 <
#377580
0#
07
#380835
1#
17
b10 <
#384090
0#
07
#387345
1#
17
b11 <
#390600
0#
07
#393855
1#
17
b100 <
#397110
0#
07
#400365
1#
17
b101 <
#403620
0#
07
#406875
1#
17
b110 <
#410130
0#
07
#413385
1#
17
b111 <
#416640
0#
07
#416668
1"
16
#419895
1#
17
b1000 <
#423150
0#
07
#426405
1#
17
b1001 <
#429660
0#
07
#432915
1#
17
b1010 <
#436170
0#
07
#439425
1#
17
b1011 <
#442680
0#
07
#445935
1#
17
b1100 <
#449190
0#
07
#452445
1#
17
b1101 <
#455700
0#
07
#458955
1#
17
b1110 <
#462210
0#
07
#465465
1#
17
b1111 <
#468720
0#
07
#471975
1#
17
b11 ;
b0 <
#475230
0#
07
#478485
1#
17
b1 <
#481740
0#
07
#484995
1#
17
b10 <
#488250
0#
07
#491505
1#
17
b11 <
#494760
0#
07
#498015
1#
17
b100 <
#501270
0#
07
#504525
1#
17
b101 <
#507780
0#
07
#511035
1#
17
b110 <
#514290
0#
07
#517545
1#
17
b111 <
#520800
0#
07
#520835
0"
06
#524055
1#
17
b1000 <
#527310
0#
07
#530565
1#
17
b1001 <
#533820
0#
07
#537075
1#
17
b1010 <
#540330
0#
07
#543585
1#
17
b1011 <
#546840
0#
07
#550095
1#
17
b1100 <
#553350
0#
07
#556605
1#
17
b1101 <
#559860
0#
07
#563115
1#
17
b1110 <
#566370
0#
07
#569625
1#
17
b1111 <
#572880
0#
07
#576135
1#
17
b11111101010 :
b100 ;
b0 <
0,
#579390
0#
07
#582645
1#
17
b1 <
#585900
0#
07
#589155
1#
17
b10 <
#592410
0#
07
#595665
1#
17
b11 <
#598920
0#
07
#602175
1#
17
b100 <
#605430
0#
07
#608685
1#
17
b101 <
#611940
0#
07
#615195
1#
17
b110 <
#618450
0#
07
#621705
1#
17
b111 <
#624960
0#
07
#625002
1"
16
#628215
1#
17
b1000 <
#631470
0#
07
#634725
1#
17
b1001 <
#637980
0#
07
#641235
1#
17
b1010 <
#644490
0#
07
#647745
1#
17
b1011 <
#651000
0#
07
#654255
1#
17
b1100 <
#657510
0#
07
#660765
1#
17
b1101 <
#664020
0#
07
#667275
1#
17
b1110 <
#670530
0#
07
#673785
1#
17
b1111 <
#677040
0#
07
#680295
1#
17
b101 ;
b0 <
#683550
0#
07
#686805
1#
17
b1 <
#690060
0#
07
#693315
1#
17
b10 <
#696570
0#
07
#699825
1#
17
b11 <
#703080
0#
07
#706335
1#
17
b100 <
#709590
0#
07
#712845
1#
17
b101 <
#716100
0#
07
#719355
1#
17
b110 <
#722610
0#
07
#725865
1#
17
b111 <
#729120
0#
07
#729169
0"
06
#732375
1#
17
b1000 <
#735630
0#
07
#738885
1#
17
b1001 <
#742140
0#
07
#745395
1#
17
b1010 <
#748650
0#
07
#751905
1#
17
b1011 <
#755160
0#
07
#758415
1#
17
b1100 <
#761670
0#
07
#764925
1#
17
b1101 <
#768180
0#
07
#771435
1#
17
b1110 <
#774690
0#
07
#777945
1#
17
b1111 <
#781200
0#
07
#784455
1#
17
b11110101010 :
b110 ;
b0 <
0*
#787710
0#
07
#790965
1#
17
b1 <
#794220
0#
07
#797475
1#
17
b10 <
#800730
0#
07
#803985
1#
17
b11 <
#807240
0#
07
#810495
1#
17
b100 <
#813750
0#
07
#817005
1#
17
b101 <
#820260
0#
07
#823515
1#
17
b110 <
#826770
0#
07
#830025
1#
17
b111 <
#833280
0#
07
#833336
1"
16
#836535
1#
17
b1000 <
#839790
0#
07
#843045
1#
17
b1001 <
#846300
0#
07
#849555
1#
17
b1010 <
#852810
0#
07
#856065
1#
17
b1011 <
#859320
0#
07
#862575
1#
17
b1100 <
#865830
0#
07
#869085
1#
17
b1101 <
#872340
0#
07
#875595
1#
17
b1110 <
#878850
0#
07
#882105
1#
17
b1111 <
#885360
0#
07
#888615
1#
17
b111 ;
b0 <
#891870
0#
07
#895125
1#
17
b1 <
#898380
0#
07
#901635
1#
17
b10 <
#904890
0#
07
#908145
1#
17
b11 <
#911400
0#
07
#914655
1#
17
b100 <
#917910
0#
07
#921165
1#
17
b101 <
#924420
0#
07
#927675
1#
17
b110 <
#930930
0#
07
#934185
1#
17
b111 <
#937440
0#
07
#937503
0"
06
#940695
1#
17
b1000 <
#943950
0#
07
#947205
1#
17
b1001 <
#950460
0#
07
#953715
1#
17
b1010 <
#956970
0#
07
#960225
1#
17
b1011 <
#963480
0#
07
#966735
1#
17
b1100 <
#969990
0#
07
#973245
1#
17
b1101 <
#976500
0#
07
#979755
1#
17
b1110 <
#983010
0#
07
#986265
1#
17
b1111 <
#989520
0#
07
#992775
1#
17
b11010101010 :
b1000 ;
b0 <
0(
#996030
0#
07
#999285
1#
17
b1 <
#1002540
0#
07
#1005795
1#
17
b10 <
#1009050
0#
07
#1012305
1#
17
b11 <
#1015560
0#
07
#1018815
1#
17
b100 <
#1022070
0#
07
#1025325
1#
17
b101 <
#1028580
0#
07
#1031835
1#
17
b110 <
#1035090
0#
07
#1038345
1#
17
b111 <
#1041600
0#
07
#1041670
1"
16
#1044855
1#
17
b1000 <
#1048110
0#
07
#1051365
1#
17
b1001 <
#1054620
0#
07
#1057875
1#
17
b1010 <
#1061130
0#
07
#1064385
1#
17
b1011 <
#1067640
0#
07
#1070895
1#
17
b1100 <
#1074150
0#
07
#1077405
1#
17
b1101 <
#1080660
0#
07
#1083915
1#
17
b1110 <
#1087170
0#
07
#1090425
1#
17
b1111 <
#1093680
0#
07
#1096935
1#
17
b1001 ;
b0 <
#1100190
0#
07
#1103445
1#
17
b1 <
#1106700
0#
07
#1109955
1#
17
b10 <
#1113210
0#
07
#1116465
1#
17
b11 <
#1119720
0#
07
#1122975
1#
17
b100 <
#1126230
0#
07
#1129485
1#
17
b101 <
#1132740
0#
07
#1135995
1#
17
b110 <
#1139250
0#
07
#1142505
1#
17
b111 <
#1145760
0#
07
#1149015
1#
17
b1000 <
#1152270
0#
07
#1155525
1#
17
b1001 <
#1158780
0#
07
#1162035
1#
17
b1010 <
#1165290
0#
07
#1168545
1#
17
b1011 <
#1171800
0#
07
#1175055
1#
17
b1100 <
#1178310
0#
07
#1181565
1#
17
b1101 <
#1184820
0#
07
#1188075
1#
17
b1110 <
#1191330
0#
07
#1194585
1#
17
b1111 <
#1197840
0#
07
#1201095
1#
17
b1010 ;
b0 <
#1204350
0#
07
#1207605
1#
17
b0 ;
19
b11 =
08
1%
0$
#1210860
0#
07
#1214115
1#
17
b1 <
#1217370
0#
07
#1220625
1#
17
b10 <
#1223880
0#
07
#1227135
1#
17
b11 <
#1230390
0#
07
#1233645
1#
17
b100 <
#1236900
0#
07
#1240155
1#
17
b101 <
#1243410
0#
07
#1246665
1#
17
b110 <
#1249920
0#
07
#1253175
1#
17
b111 <
#1256430
0#
07
#1259685
1#
17
b1000 <
#1262940
0#
07
#1266195
1#
17
b1001 <
#1269450
0#
07
#1272705
1#
17
b1010 <
#1275960
0#
07
#1279215
1#
17
b1011 <
#1282470
0#
07
#1285725
1#
17
b1100 <
#1288980
0#
07
#1292235
1#
17
b1101 <
#1295490
0#
07
#1298745
1#
17
b1110 <
#1302000
0#
07
#1305255
1#
17
b1111 <
#1308510
0#
07
#1311765
1#
17
b0 <
09
b0 =
0%
#1315020
0#
07
#1318275
1#
17
b11111111111 :
10
1.
1,
1*
1(
